{
  "borgbase_repo": "generate:2022-08-08",
  "db_admin_password": "generate:2022-08-08",
  "db_main_password": "generate:2022-08-08",
  "db_read_password": "generate:2022-08-08",
  "app_secret": "generate:2022-08-08",
  "etwin_client_secret": "generate:2022-08-08"
}
