{
  "borgbase_repo": "generate:2022-09-24",
  "db_admin_password": "generate:2022-09-24",
  "db_main_password": "generate:2022-09-24",
  "db_read_password": "generate:2022-09-24",
  "secret_key": "generate:2022-09-24",
  "etwin_client_secret": "generate:2022-09-24"
}
