{
  "borgbase_repo": "generate:2022-09-24",
  "db_admin_password": "generate:2022-09-24",
  "db_main_password": "generate:2022-09-24",
  "db_read_password": "generate:2022-09-24",
  "app_secret": "generate:2022-09-24",
  "access_passphrase": "aead:$katal$v=1$$qxabWKFhhNryDPKg$bUYx9AmRK53P8pn0r9s4wjpE03qheNs=",
  "etwin_client_secret": "generate:2022-09-24",
  "discord_webhook": "aead:$katal$v=1$$GKDwINw9/9ouCTSs$CuspTgbkjrB51vVps76qSbTG3XJvXpNj/DOchvwahMs4ZLuvLs1kTZ9NFPt8f8mthNEZLtoB/dGN/U2xp3Sdw21WtIkXxUF9sc1vmDsLkwmK8AaX3SfkWJbN7kAXF2QKqKYORmow9wf/pRvq1k135Fbu1VwBECEHIld3Q8jzaolcGPQzc8hTqGM="
}
